%YAML 1.1
%TAG !u! tag:unity3d.com,2011:
--- !u!114 &11400000
MonoBehaviour:
  m_ObjectHideFlags: 0
  m_CorrespondingSourceObject: {fileID: 0}
  m_PrefabInternal: {fileID: 0}
  m_GameObject: {fileID: 0}
  m_Enabled: 1
  m_EditorHideFlags: 0
  m_Script: {fileID: 11500000, guid: c77222cf6d9049b43867343881320090, type: 3}
  m_Name: '[Mount Config] Gaze'
  m_EditorClassIdentifier: 
  nickname: Gaze
  mountPrefab: {fileID: 1754141769573532, guid: d3cb6e27edbe8634fb506e0d557ac7dc,
    type: 2}
  availableForLeft: 0
  availableForRight: 0
  availableForHMD: 1
  trackerCompatability: 1
