%YAML 1.1
%TAG !u! tag:unity3d.com,2011:
--- !u!114 &11400000
MonoBehaviour:
  m_ObjectHideFlags: 0
  m_CorrespondingSourceObject: {fileID: 0}
  m_PrefabInternal: {fileID: 0}
  m_GameObject: {fileID: 0}
  m_Enabled: 1
  m_EditorHideFlags: 0
  m_Script: {fileID: 11500000, guid: c77222cf6d9049b43867343881320090, type: 3}
  m_Name: '[Mount Config] Pointer'
  m_EditorClassIdentifier: 
  nickname: Pointer
  mountPrefab: {fileID: 1886275305141590, guid: 1a82f333fc187bf4288accef209393b2,
    type: 2}
  availableForLeft: 1
  availableForRight: 1
  availableForHMD: 1
  trackerCompatability: 7
